
PY205     JANDR561                                              Rydell Auto Center Inc.                                                               1/01/17   8:24:15
From  1/01/16  Through 12/31/16                                 Employee Gross Pay Report                                                                      Page   1
=======================================================================================================================================================================
Employee                                                                 Birth     Hire      Term                      YR            YR
 Number  Name                                                            Date      Date      Date    Dpt Prd Cls    Gross Pay      Overtime   Job Description
=======================================================================================================================================================================
  11420  ABRAHAMSON, CHAZ                                               9/10/92  11/07/16             03  B   H       3851.88        151.20   PDQ/UT Upperbay Technicia
  11542  ADAIR, JENNA                                                  11/28/99   9/27/16             27  B   H       1182.30                 CW/TM Car Wash Team Membe
  11660  ADAM, PATRICK                                                 11/15/68   4/25/16             05  B   C      36023.43       3315.40   BS/PTB Paint Technician (
  11687  ADLER, RONALD S                                               11/25/68   5/27/14   6/02/16   24  B   C      27111.26                 D/TTL
  11732  AGUILAR, ANNA                                                  6/26/82   9/08/15             05  B   H      27669.83        409.62   BS/A Body Shop Admin
  12725  ALSLEBEN, DEVIN                                                6/18/94   3/14/16             03  B   H      15011.16        822.24   PDQ/UT Upperbay Technicia
  12800  ANDERSON, HAILEE                                               7/08/91  10/24/16             17  B   H       4445.27        151.56   CC3 General Operator
  12956  ANDERSON, NICHOLAS                                             9/28/91   6/06/16             24  B   H      12547.80        985.68   D/P Detail Porter
  13725  ANDERSON, SHAWN W                                             12/30/80   2/02/15             04  B   C     111927.39                 SVC/TA Main Shop Technici
  13815  ANDERSON, STEVEN L                                            12/24/43   3/10/14             01  B   H       5344.50         67.50   S/D Sales Driver
  16425  ANDREWS, JON                                                   6/05/51   4/11/06             29  B   S      85094.36                 CART Developer
  16450  APPLING, DAVID J                                               5/11/50   1/27/15             22  B   H       3630.55                 HS/A Hobby Shop Assistant
  17166  ARRINGTON, TONY                                                1/17/79   2/01/07   7/06/16   11  B   S      35376.92                 WEB Website Administrator
  17172  ASCHNEWITZ, BRADLEY J                                         10/14/88   2/10/14   7/30/16   01  B   C      21128.36                 S/UCC Used Car Sales Cons
  17190  ATKINSON, STEVEN J                                             4/19/61   3/30/15   9/19/16   01  S   C      39263.34                 S/UCC Used Car Sales Cons
  17534  AUBOL, THOMAS B                                                6/17/64  11/09/98             01  S   C     124236.50                 S/NTL New Car Team Leader
  18005  AXTMAN, DALE M                                                 1/12/66   5/01/01             4A  B   H      51826.54       1213.99   SVC/TA Main Shop Technici
 110020  BAIL, WILLIAM SCOTT                                           11/24/92  12/09/13   8/03/16   06  B   H      11205.27        167.32   P/SS Parts Shipping Speci
 110028  BALBOA, DONOVAN                                               12/01/98   4/25/16   8/23/16   27  B   H       2229.50                 CW/TM Car Wash Team Membe
 110048  BARBER, DYLAN                                                  6/04/98   3/28/16   9/28/16   03  B   H       8606.66        101.22   PDQ/LT Lowerbay Technicia
 110052  BARKER, JOSHUA D                                              10/05/84  11/01/10             02  S   C      76518.58                 S/NTL New Car Team Leader
 110073  BARON, CORY                                                    4/18/85   8/31/15   6/26/16   4A  B   H      17260.97        448.82   SVC/TB Main Shop Technici
 111210  BEAR, JEFFERY L                                               12/03/68  10/14/14             04  B   C      59095.60                 SVC/TB Main Shop Technici
 111250  BEISWENGER, LYLE W                                             6/19/37  11/13/12             01  B   H       4525.00                 S/D Sales Driver
 112273  BENTH, MORGAN D                                                6/16/94   8/03/15             05  B   H      25468.31       1618.47   BS/A Body Shop Admin
 112057  BERCAW, TREVOR                                                 4/03/91   7/05/16             03  B   H      13632.94        886.08   PDQ/A PDQ Advisor
 113000  BERG, STEPHEN R.                                               6/29/49  11/13/72             20  B   H      38117.55       2937.41   MT Maintenance Technician
 113085  BERGH, STEVEN                                                  6/28/73   6/30/14             24  B   S      48200.16                 APP/DIR Appearance Direct
 113550  BERRY, ALAN S                                                  8/19/76   1/01/13   9/30/16   02  S   S      63332.18                 S/UTL Used Car Team Leade
 114204  BJORKLUND, JOHN                                                9/23/94   9/26/16             27  B   H       1921.00                 CW/TM Car Wash Team Membe
 115062  BJORNBERG, ADAM                                                4/01/93  11/09/15   6/15/16   27  B   H       2880.20                 CW/TM Car Wash Team Membe
 115255  BJORNSETH, MARK L.                                            10/30/58   9/25/89             06  B   S      60020.20                 P/INV Parts Inventory Man
 159100  BLISS, TYLER N                                                 7/27/98   8/15/16             03  B   H       7989.36        102.60   PDQ/T PDQ TECH
 160930  BLUMHAGEN, KATHERINE M                                         1/15/72   8/19/02             05  B   S      68977.32                 BSPT Body Shop Parts Spec
 116185  BOHM, DOUGLAS                                                 11/03/53   3/01/93             04  B   C      47400.09                 SVC/TB Main Shop Technici
 116198  BOHN, KATIE                                                    9/03/96   9/12/16  10/31/16   17  B   H       1259.80                 CC/GO General Operator
 116210  BOROWICZ, BRETT K                                              8/18/94   8/01/16             06  B   H      11501.24       1707.54   P/D Parts Driver
 117820  BOUSHEY, ELIZABETH                                             1/21/92   5/09/16   7/27/16   01  S   C       6932.40                 DSC Digital Sales Consult
 118520  BROOKS JR., DREW                                              11/12/96   5/23/16             03  B   H      10953.24         22.68   PDQ/UT Upperbay Technicia
 121063  BRORBY, BO                                                     8/29/90  11/23/15             10  B   H      39122.46       3099.60   IT/VE Video Editor
 121130  BURNS, CHRISTOPHER J                                           7/03/93   8/15/16  10/11/16   03  B   H       4636.50         48.06   PDQ/T PDQ TECH
 121362  BURSINGER, TRAVIS C                                            9/29/71   7/16/04             18  B   H      55697.92       3180.36   SVC/A Main Shop Advisor
 121450  BUSETH, OLIVER                                                10/04/49   2/16/15             01  B   H         70.00                 S/D Sales Driver
 123100  CAHALAN, BENJAMIN C                                            7/09/79   8/03/11             01  B   S     235403.42                 GM General Manager
 123101  CAHALAN, CHRISTIAN                                             1/25/01   6/27/16   7/22/16   05  B   H       1633.65         44.55   BS/DET Body Shop Detailer
 123102  CAHALAN, CORBIN                                                8/12/98   6/28/16   7/22/16   05  B   H       1480.15         42.15   BS/DET Body Shop Detailer
 123211  CAMERON, AFTON                                                 3/21/94   8/01/16             29  B   H      13213.61          2.55    parts/body shop
 123208  CAMPBELL, KELSEY                                               4/04/93   5/09/16   7/05/16   20  B   H       1671.90                 REC Receptionist
 123264  CANFIELD, RICHARD II                                           7/18/96  12/21/15   3/11/16   03  B   H       4253.46         43.38   PDQ/UT Upperbay Technicia
 123324  CANTERBURY, MCKENNA                                            1/16/95   2/01/16             27  B   H       5134.20                 CW/C Car Wash Cashier
 123425  CARLSON, CHRISTOPHER J                                         6/16/75   3/26/12             02  S   C      74098.98                 S/UCC Used Car Sales Cons
 123468  CARLSON, GINA E                                                8/27/80   7/06/15  11/07/16   17  B   H      20365.40         49.32   CC/GO General Operator


PY205     JANDR561                                              Rydell Auto Center Inc.                                                               1/01/17   8:24:15
From  1/01/16  Through 12/31/16                                 Employee Gross Pay Report                                                                      Page   2
=======================================================================================================================================================================
Employee                                                                 Birth     Hire      Term                      YR            YR
 Number  Name                                                            Date      Date      Date    Dpt Prd Cls    Gross Pay      Overtime   Job Description
=======================================================================================================================================================================
 123525  CARLSON, KENNETH A                                            12/10/63   1/01/10             18  B   H       5072.50                 SVC/A Main Shop Advisor
 123530  CARLSON, MARCUS                                                5/05/97   7/06/15             27  B   H       5182.40                 CW/TM Car Wash Team Membe
 123538  CARLSON, ROBERT                                                3/18/65   4/01/97             25  S   C     124000.00                 RC Rydell Company
 123600  CARTER, LOGAN M                                               12/14/95   3/30/15             02  S   C      41757.00                 S/UCC Used Car Sales Cons
  13690  CASSERLY, JONATHAN                                            12/18/92   9/26/16             03  B   H       6639.54         14.58   PDQ/UT Upperbay Technicia
 124101  CHAMPAGNE, LESLIE                                              9/24/85   8/25/14             24  B   H      19738.55       1513.53   D/C Detail Cashier
 124109  CHARETTE, TRISTON                                              7/14/96   4/25/16   5/06/16   03  B   H       1061.16                 PDQ/UT Upperbay Technicia
 124120  CHAVEZ, JESSE                                                  9/12/93   6/30/14             02  S   C      51333.42                 S/DC Digital Sales Consul
 124360  CHAVEZ, ROMAN                                                  7/12/85   8/29/16             03  B   H      10287.48       1418.16   PDQ/UT Upperbay Technicia
 125028  CLARK, JOHNNY                                                  7/18/98  12/07/15             03  B   H      16169.88        259.74   PDQ/UT Upperbay Technicia
 125050  CLARK, WILLIAM J                                               9/19/74   8/01/16   9/16/16   06  B   H       3689.02        117.01   P/D Parts Driver
 126200  COCHRAN, MICHELLE C                                            9/11/87   1/24/11             12  B   S      42011.64                 LFI Lead F&I Admin
 126250  COULTER, DONALD R                                              1/23/44   1/27/15             22  B   H       1599.07                 HS/A Hobby Shop Assistant
 128120  CRANE, AUBREY LYNN                                             6/10/77   1/14/13   6/27/16   24  B   S      22615.46                 D/AM Detail Assistant Man
 128530  CROAKER, CRAIG R                                               9/03/56   1/30/07             02  S   C     104315.50                 S/UCC Used Car Sales Cons
 128900  CULLEN, JOHN                                                   4/27/94   4/25/16   7/29/16   03  B   H       6732.36        127.08   PDQ/UT Upperbay Technicia
 129450  DAHLEN, CHRISTOPHER                                            5/24/97  11/07/16             27  B   H        481.40                 CW/TM Car Wash Team Membe
 130510  DALUSONG, ANDREW B                                            11/30/88   8/15/16             03  B   H      10452.36        780.84   PDQ/T PDQ TECH
 131263  DARLING, ANDREW                                                5/05/91  10/26/15   4/08/16   03  B   H       7670.22        543.30   PDQ/LT Lowerbay Technicia
 131370  DAVID, GORDON                                                 10/09/74   6/07/95             04  B   C      47001.80                 SVC/TB Main Shop Technici
 131440  DAVIDSON, DALE A                                               3/14/49  10/13/09   6/30/16   02  S   C      24787.95                 S/UCC Used Car Sales Cons
 131315  DAVIS, ERIC A                                                  9/19/88   8/11/14             24  B   C      50354.83                 D/T Detail Technician
 161051  DAVIS, SARA E                                                  8/30/82   6/26/13             15  B   H      32117.97        232.97   PC Project Coordinator
 132500  DELOHERY, MICHAEL J                                            4/02/57   5/03/10             15  B   S      67565.22                 S/DMM Digital Marketing M
 132654  DEMERS, GRANT                                                  2/12/98  10/10/16             03  B   H       5694.18        176.94   PDQ/UT Upperbay Technicia
 132625  DEVERS, DEVYN M                                                3/22/94  12/15/14   6/10/16   17  B   H      11467.76        129.78   CC/GO General Operator
 132688  DEVINE, CHRISTOPHER                                            2/12/96   2/29/16   9/13/16   03  B   H      13429.42        591.30   PDQ/UT Upperbay Technicia
 133017  DOCKENDORF, NATE J                                             8/17/76   5/18/15             01  S   C      59776.72                 S/UCC Used Car Sales Cons
 135770  DRISCOLL, TERRANCE                                            12/12/55  11/04/02             05  B   C      80082.06                 BS/MTB Metal Technician (
 136170  DUCKSTAD, JARED J                                              1/15/74   9/30/02             4A  B   H      48253.66       2221.80   SVC/TA Main Shop Technici
 137101  EBERLE, MARCUS M                                               6/28/96   8/15/16             05  B   H      16224.37       1093.19   BS/MTC Metal Technician (
 137220  EDEN, COREY                                                    4/12/91   2/01/16             01  S   C      50854.96                 S/DC Digital Sales Consul
 138380  EICHHORST, NOEL E.                                             2/28/59   8/30/78             20  B   H      24096.58                 CUST Custodian
 138385  EKEN, BRETT D                                                  5/21/97   5/19/14             03  B   H      18285.68        116.34   PDQ/LT Lowerbay Technicia
 138400  EKRE, HAILEY                                                   3/30/96   6/07/16   8/27/16   17  B   H       1539.20                 CC/GO General Operator
 138411  EMMONS, STEVEN M                                              11/12/95  10/12/15   8/22/16   01  S   C      18200.00                 S/UCC Used Car Sales Cons
 140500  ERICKSON, RONALD J                                             2/12/75  10/12/09             02  S   C      86865.64                 S/UTL Used Car Team Leade
 140790  ESPELUND, KENNETH MICHAEL                                      6/09/76   9/19/05             18  B   S      73275.24                 SVC/MGR Service Drive Man
 141060  EULISS, NED                                                    8/04/86  11/02/04             18  B   S      56025.91                 SVC/W SERVICE WRITER
 141069  EVAVOLD, DANIEL J                                              3/15/83   1/23/07             05  B   H      68177.75       2565.39   BS/E Estimator
 143180  FEIST, LUDWIG H                                               12/21/65   2/28/11             06  B   H      32882.96        959.28   P/S Parts Sales Consultan
 144642  FISCHER, JEFFREY                                               7/11/68  12/21/15   3/22/16   20  B   H       2906.64                 CUST Custodian
 145801  FLAAT, GAVIN                                                   3/09/86   4/11/16             04  B   C      37163.54       1850.70   SVC/TB Main Shop Technici
 145840  FLAAT, STEPHEN C                                               3/19/57   2/01/05             01  S   C      70091.22                 S/F Fleet Sales Consultan
 145910  FLATIN, JERRY C                                               10/31/53   7/16/12   6/08/16   06  B   H      12753.34       1381.59   P/D Parts Driver
 146124  FLETCHER, NICHOLAS                                             1/09/85  12/07/15   1/25/16   03  B   H       1663.68                 PDQ/UT Upperbay Technicia
 145921  FLETCHER, SPENCER                                              3/04/94   4/25/16   4/25/16   01  B   C         46.41                 S/DC Digital Sales Consul
 146450  FOERSTER, KELLY J.                                             2/24/58   2/18/85             01  B   S      74677.24                 S/NINV New Car Inventory
 146480  FONTAINE, ASHLEY                                              10/24/95   4/25/16             17  B   H      17671.42       2166.12   CC/GO General Operator
 147000  FOOTE, ROBERT J                                                5/06/77  11/13/16             20  B   S      67038.67                 MM Maintenance Manager
 148050  FOSTER, BENJAMIN F                                             7/20/84  10/21/13             01  B   S     102682.26                 HR/D Human Resources Dire
 148075  FOSTER, KEVIN B                                                3/04/52   6/05/06             94  B   S     241193.66                 RC Rydell Company


PY205     JANDR561                                              Rydell Auto Center Inc.                                                               1/01/17   8:24:15
From  1/01/16  Through 12/31/16                                 Employee Gross Pay Report                                                                      Page   3
=======================================================================================================================================================================
Employee                                                                 Birth     Hire      Term                      YR            YR
 Number  Name                                                            Date      Date      Date    Dpt Prd Cls    Gross Pay      Overtime   Job Description
=======================================================================================================================================================================
 148080  FOSTER, SAMUEL T                                               7/17/90  11/17/14             02  S   C      42208.94                 S/DC Digital Sales Consul
 148156  FOWLER, DYLAN                                                  5/31/99  11/23/15   9/03/16   27  B   H       2811.20                 CW/TM Car Wash Team Membe
 148275  FRANKS, RAYMOND                                                6/30/43   2/01/66             18  B   H      61000.26      14659.25   MT Maintenance Technician
 149507  GABLE, TONYA                                                   4/12/90   9/26/16             01  B   H       8768.18         11.03   S/PS Sales Product Specia
 149750  GABRIELSON, JAMES B                                            3/01/92   8/24/15   5/06/16   03  B   H       4898.74                 PDQ/A PDQ Advisor
 155214  GAGNON, ANASTASIA                                              2/15/00  12/20/16             12  B   H         51.00                 FC FILE CLERK
 157995  GAGNON, JUNE                                                   6/07/82   2/11/08             14  B   S      40615.00                 OFF/MGR Office Manager
 149878  GAGNON, TRACI L                                                3/17/81  10/30/08             16  B   H      34999.54       3701.45   CC/SO Service Operator
 150040  GARCEAU, CHRIS                                                 3/09/73   4/01/10             01  S   C      82857.04                 S/AZ Sales & Leasing Prof
 150045  GARCEAU, JOSEPH D                                              4/29/74   7/18/11  11/09/16   01  B   C      46357.01                 S/NCC New Car Sales Consu
 150061  GARCIA, JUAN                                                   3/03/98  10/10/16  10/12/16   27  B   H         75.30                 CW/TM Car Wash Team Membe
 150105  GARDNER, CHAD A                                                3/04/78   4/04/11             05  B   C      70556.51                 BS/MTB Metal Technician (
 150120  GARDNER, JOHN T                                                5/06/91   6/01/14             24  B   S      51624.72                 D/FS Detail Floor Supervi
 150122  GEERTSEMA, CONNOR M                                           12/27/91   7/18/16   7/27/16   03  B   H        852.66         62.46   PDQ/T PDQ TECH
 150126  GEHRTZ, CLAYTON J                                              7/15/89  12/29/14             04  B   C      71800.31                 SVC/TB Main Shop Technici
 150130  GERSZEWSKI, NICK L                                            11/10/95   8/31/15   5/08/16   03  B   H       4059.96                 PDQ/UT Upperbay Technicia
 152150  GIESEKE, CODY G                                                3/20/93   6/02/14   4/01/16   4A  B   H       9049.95       1489.95   SVC/TD Main Shop Technici
 151203  GILBERTSON, KEATON                                             2/04/00   6/20/16             03  B   H       5590.08                 PDQ/UT Upperbay Technicia
 152235  GIRODAT, JEFF S                                                8/23/63   5/05/86             04  B   C      95897.82                 SVC/TA Main Shop Technici
 152480  GOETZ, DUANE E                                                 9/15/52  10/01/12             25  S   C     130000.00                 RC Rydell Company
 152485  GONITZKE, MATTHEW                                              7/10/96   9/13/16             03  B   H       4930.50         55.26   PDQ/UT Upperbay Technicia
 152490  GONZALEZ, ANTHONY J                                           11/30/88   8/15/16             27  B   H       5905.65         13.35   CW/TM Car Wash Team Membe
 152495  GONZALEZ, BRYAN A                                              2/21/94   3/31/14             24  B   C      24625.59                 D/T Detail Technician
 152499  GOTHBERG, CONNER JOHN                                          8/09/98   8/25/14             03  B   H      28273.62       2090.76   PDQ/LT Lowerbay Technicia
 152510  GOULET, SHANE A                                                7/24/85   3/31/14             27  B   H      25673.91        133.77   CW/TM Car Wash Team Membe
 152521  GRANADOS, TIMOTHY                                              5/15/91  12/07/15   7/14/16   03  B   H      19770.47       4088.67   PDQ/A PDQ Advisor
 152525  GRANT, DESIREE L                                               7/21/83   5/19/14             04  B   C      35561.25        828.91   SVC/TC Main Shop Technici
 152410  GRAY, NATHAN J                                                11/19/88   8/22/11             04  B   C      55025.98                 SVC/TA Main Shop Technici
 152432  GREEN, HARRISON                                                8/14/95   2/15/16             03  B   H      22593.65       2229.15   PDQ/LT Lowerbay Technicia
 152512  GREICAR, JESSICA                                               8/09/80   8/29/16             12  B   H       1221.74                 OFF/T Title Clerk
 152520  GROCHOW, KYLE W                                                1/15/92  12/15/14  11/14/16   04  B   C      23429.17                 SVC/TC Main Shop Technici
 161010  HAGA, MASON C                                                 12/24/97   6/01/15             03  B   H      13532.00                 PDQ/LT Lowerbay Technicia
 163700  HALEY, DYLANGER                                                2/09/93   9/26/16             01  S   C       9645.90                 S/NCC New Car Sales Consu
 164050  HALL, JOSHUA S                                                 7/07/94   5/02/16   9/30/16   01  S   C      13956.77                 DSC Digital Sales Consult
 161095  HALVORSON, MICHAEL                                             2/25/88   2/16/15             20  B   H      36829.15       2556.27   MT Maintenance Technician
 161325  HANSON, BRETT A                                                6/22/66   4/14/03             01  S   C      79740.62                 S/NCC New Car Sales Consu
 161350  HANSON, KEVIN W                                                4/25/64   2/13/12  10/17/16   18  B   S      59523.84                 SVC/A Main Shop Advisor
 162428  HARMON, TERRENCE J                                             1/30/63  10/01/01             06  B   H      57315.56       5534.28   P/S Parts Sales Consultan
 162795  HARRIS, SEAN                                                   4/08/96   6/30/14             03  B   H      28468.16       5154.66   PDQ/A PDQ Advisor
 162800  HARRIS, SHERIDAN                                              11/09/36   9/01/55             01  B   H       1385.00                 S/D Sales Driver
 163062  HASSAN, AYUB                                                   3/09/96   6/20/16   9/03/16   27  B   H       1915.20                 CW/TM Car Wash Team Membe
 163096  HASTINGS, DAWN                                                12/07/58   1/06/86             12  B   H      46929.82       4386.14   OFF/T Title Clerk
 164015  HEFFERNAN, JOSH                                                6/04/77   7/15/95             04  B   C      72225.40                 SVC/TA Main Shop Technici
 164202  HELGESON, HERB                                                10/18/42   1/13/05             01  B   H       2760.00                 S/D Sales Driver
 181520  HENDRICKSON, KAYLE M                                          11/12/91  11/20/13             14  B   H      31742.88       1115.10   OFF/AP Accounts Payable C
 181876  HENRY, JUDY                                                   12/31/55   2/01/94             84  B   S      61470.88                 RC Rydell Company
 164920  HEPOLA, JAMES W                                               12/15/90  11/15/10             24  B   C      23659.35                 D/T Detail Technician
 164991  HERMANSEN, DE'MARCOS                                          11/10/99   4/25/16   9/03/16   27  B   H       3515.50                 CW/TM Car Wash Team Membe
 165275  HICKS, EMILY                                                   4/08/96   9/12/16             05  B   H      13647.60        389.73   BS/DET Body Shop Detailer
 165378  HILBER, KEATON T                                              11/07/94   4/13/15             03  B   H       9973.56       1147.86   PDQ/LT Lowerbay Technicia
 165357  HILL, BRIAN                                                    3/03/66   8/28/06             05  B   H      82194.12       3409.97   BS/E Estimator
 165400  HILLEBRAND, BROCK D                                            1/26/91   4/06/11             24  B   H      29163.10       2285.65   D/P Detail Porter


PY205     JANDR561                                              Rydell Auto Center Inc.                                                               1/01/17   8:24:15
From  1/01/16  Through 12/31/16                                 Employee Gross Pay Report                                                                      Page   4
=======================================================================================================================================================================
Employee                                                                 Birth     Hire      Term                      YR            YR
 Number  Name                                                            Date      Date      Date    Dpt Prd Cls    Gross Pay      Overtime   Job Description
=======================================================================================================================================================================
 165412  HILLEN, SHAWN                                                  9/25/95  10/31/16             05  B   H       1302.24         36.36   BS/MTC Metal Technician (
 165410  HINRICHS, MARISSA A                                            1/29/93  11/17/14             16  B   H      31908.66       3078.16   CC/SO Service Operator
 165500  HOEKSTRA, APRIL                                               12/26/74   8/10/15             27  B   H      21774.64        536.76   CW/TM Car Wash Team Membe
 167812  HOLWEGER, AMANDA J                                             1/26/86   4/25/11             20  B   H       3085.83                 REC Receptionist
 167580  HOLWERDA, KIRBY W                                              9/16/92   5/18/11             04  B   C      36947.75                 SVC/TC Main Shop Technici
 167600  HOMSTAD, JARED A                                               3/16/89   3/30/15             02  S   C      72546.00                 BS/ST Staging Technician
 167696  HORTON, ERIC                                                   9/14/91  10/26/15   8/16/16   24  B   C       4091.88                 D/T Detail Technician
 167906  HULL, DAVID                                                   11/08/94   4/27/15             20  B   H      25462.76         92.94   CUST Custodian
 168702  HULSE, AARON J                                                11/06/93   4/13/15   6/03/16   03  B   H       7382.34                 PDQ/LT Lowerbay Technicia
 168230  HULST, HUNTER                                                  2/05/96  11/07/16             03  B   H       1827.60                 PDQ/UT Upperbay Technicia
 168963  HUMBLE, AUSTIN                                                 5/10/99   8/31/15   4/28/16   27  B   H       1444.50                 CW/TM Car Wash Team Membe
 168506  HUSET, CALEB                                                  12/06/97   8/29/16   8/29/16   03  B   H        242.64                 PDQ/UT Upperbay Technicia
 169000  HUYGENS, MACKENZIE                                            10/10/93   8/29/16   9/02/16   03  B   H        325.44                 PDQ/UT Upperbay Technicia
 169420  IMBERY, ANTHONY                                                5/25/94   5/24/16             4A  B   H      21393.19       2418.34   PDQ/LT Lowerbay Technicia
 170101  INAD, IHSAN H                                                 12/28/75   2/02/15             04  B   C      31427.21                 SVC/TB Main Shop Technici
 170150  IVERSON, ARNOLD W.                                             8/06/42  11/30/81             05  B   H      54054.36       8545.30   BS/MTA Metal Technician (
 171055  JACOBSON, PETER A                                              1/11/71  12/13/10             05  B   C      94396.54                 BS/PTA Paint Technician (
 171210  JAMA, JAMA O                                                   1/01/90   8/01/11   1/29/16   05  B   H       3992.73          7.39   BS/P Body Shop Porter
 171150  JANZEN, AUSTIN                                                 2/19/94   5/23/16             01  S   C      40258.66                 S/NCC New Car Sales Consu
 172012  JEROME, COOPER                                                 7/23/96   2/15/16   7/08/16   03  B   H       9757.60        204.48   PDQ/LT Lowerbay Technicia
 172077  JERSTAD, KENNETH                                               9/24/54   6/10/02             06  B   H      51038.38       2654.48   P/S Parts Sales Consultan
 173601  JOHN, MAKALA A                                                 5/13/94   7/18/16   7/18/16   20  B   H         40.00                 REC Receptionist
 172469  JOHNKE, JEFFREY                                               10/06/93   6/06/16   6/06/16   24  B   H                                parts/body shop
 173800  JOHNKE, JEFFREY W                                             10/06/93   6/06/16             24  B   C       8253.73                 D/T Detail Technician
 173489  JOHNSON, ALEXANDRIA C                                         12/15/93   5/02/16  11/02/16   01  B   H      16727.92         10.58   S/PS Sales Product Specia
 184620  JOHNSON, BENJAMIN R                                            3/26/98   6/01/15             18  B   H      15632.70        742.14   SVC/C Courtesy Driver
 174021  JOHNSON, BRANDON M                                            12/10/90   2/01/16   4/14/16   01  S   C       7138.00                 S/DC Digital Sales Consul
 174130  JOHNSON, CODY                                                  3/13/84   1/02/13             05  B   H      10959.97        158.08   BS/PTA Paint Technician (
 174141  JOHNSON, ERIC D                                                8/10/84   2/03/14   5/31/16   02  S   C      17236.55                 S/NCC New Car Sales Consu
 176150  KACHER, RICHARD ALEX                                          12/09/87   9/12/11   1/13/16   01  B   H       2673.04        137.14   S/TS New Car Technology S
 176505  KAISER, ANTHONY                                                1/20/93   6/20/16             20  B   H       2185.30                 CUST Custodian
 176720  KASTE, KIRI                                                    9/12/96  10/24/16  11/28/16   17  B   H        478.30                 CC3 General Operator
 177741  KERZMANN, JAMES R                                              2/14/90   8/17/15   7/29/16   03  B   H      17284.82       1176.42   PDQ/A PDQ Advisor
 177830  KETTERING, RICHARD                                             2/12/90   1/18/16   1/18/16   03  B   H         33.00                 PDQ/UT Upperbay Technicia
 177950  KHATIWODA, TEK                                                 1/11/88   9/03/13   6/11/16   03  B   H       8606.88        405.86   PDQ/UT Upperbay Technicia
 178050  KIEFER, LUCAS M                                                7/12/89   5/19/14             04  B   C      33830.77                 SVC/AT Accessory Technici
 178060  KILEY, COLTON                                                  2/18/00   6/06/16             27  B   H       3133.90                 CC2 Service Operator
 178079  KILMER, JUSTIN                                                 8/23/80   2/01/07             16  B   H      48112.00       4820.08   CC/TL Call Center Team Le
 179380  KNUDSON, BENJAMIN L                                            8/10/89   8/12/09             02  S   C     128828.58                 S/UCM Used Car Sales Mana
 179693  KOENEN, DEBRA M                                                9/22/60   8/04/08             20  B   H      29415.08        899.62   REC Receptionist
 179775  KOLSTAD, KIRK R.                                               8/07/58   3/01/80             06  B   H      37251.01       2487.90   P/S Parts Sales Consultan
 179790  KOWALSKI, JASON                                               11/13/71   6/16/14             06  S   C      39067.40                 AM Aftermarket Sales Cons
 179780  KREWSON, ANTHONY D                                             8/04/94   5/11/15             04  B   C      38760.86        795.82   SVC/TC Main Shop Technici
 179801  KROSTUE, JOSHUA                                                4/18/88   1/18/16   1/18/16   27  B   H         10.00                 CW/C Car Wash Cashier
 179802  KRUCKENBERG, ERIK                                             11/02/90   2/15/16   6/20/16   03  B   H       7143.90         88.02   PDQ/UT Upperbay Technicia
 179810  KRUSE, KALISSA J                                               9/21/92   2/10/15   3/04/16   24  B   H       5608.03                 D/C Detail Cashier
 181310  KUEFLER, JAMES                                                12/25/31   1/01/98             01  B   H       6160.00                 S/D Sales Driver
 161351  KUESTER, KATIE E                                              11/24/92   8/04/16             01  B   H      13635.60          2.70   S/PS Sales Product Specia
 181411  KUNTZ, CODY L                                                  3/29/96   4/23/14   5/06/16   27  B   H       1654.68                 CW/TM Car Wash Team Membe
 180626  KVASAGER, MADISON                                             10/31/97   9/12/16             27  B   H       1928.40                 CW/TM Car Wash Team Membe
 181665  KVASAGER, ROBERT A                                             1/10/70  11/17/08  10/06/16   01  S   C      46337.56                 S/NCC New Car Sales Consu
 184605  LABELLE, KODI L                                                9/16/97   6/02/14   8/19/16   27  B   H       7559.34                 CW/TM Car Wash Team Membe


PY205     JANDR561                                              Rydell Auto Center Inc.                                                               1/01/17   8:24:15
From  1/01/16  Through 12/31/16                                 Employee Gross Pay Report                                                                      Page   5
=======================================================================================================================================================================
Employee                                                                 Birth     Hire      Term                      YR            YR
 Number  Name                                                            Date      Date      Date    Dpt Prd Cls    Gross Pay      Overtime   Job Description
=======================================================================================================================================================================
 184614  LAMONT, BRANDON                                                5/30/84  10/12/15             05  B   C      50089.50                 BS/MTB Metal Technician (
 184625  LANGENSTEIN, JARED                                             9/01/80   2/29/16             01  B   S      69526.93                 IT/SE Systems Engineer
 184630  LANGENSTEIN, KENNETH C                                        12/28/77   8/15/16             01  B   S      72195.33                 IT/SE Systems Engineer
 184610  LAUGHLIN, LARRY J                                             10/07/55  10/16/98             06  B   H      68463.44      13360.94   P/S Parts Sales Consultan
 184806  LEAVY, PAUL M                                                  3/25/78   8/25/14             24  B   C      59623.95                 D/T Detail Technician
 184920  LENE, RYAN                                                     1/11/74   1/05/15             05  B   C      81614.80                 BS/MTA Metal Technician (
 186100  LIND, KATHERINE                                                9/03/58  11/22/83             01  B   S      67854.72                 GE/MGR Guest Experience M
 186210  LINDOM, AARON                                                  9/13/93   6/02/14             05  B   C      51729.96                 BS/ST Staging Technician
 185801  LINDQUIST, ADAM J                                              9/09/84  10/05/14   2/22/16   03  B   S       7096.15                 PDQ/AM PDQ Assistant Mana
 187675  LONGORIA, BEVERLEY A                                          10/31/60   2/21/05             18  B   S      85990.09                 SVC/VC Aftrmrkt/Used Veh.
 188000  LOPEZ, LOGAN B                                                 2/08/94  11/04/15   6/13/16   27  B   H       1474.20                 CW/TM Car Wash Team Membe
 189100  LOVEN, ARDEN                                                   3/01/60   3/08/10             02  S   C      45954.80                 S/UCC Used Car Sales Cons
 188338  LUEKER, DAVID C                                                5/01/60   6/16/03             05  B   H      68264.56       3289.32   BS/E Estimator
 189295  LYNCH, JAMES J                                                 2/06/58  12/03/07             94  B   S     120000.14                 S/T Sales Trainer
 190600  MAGNUSON, TYLER D                                             11/27/92   4/06/11             05  B   H      43403.47       3382.44   BS/DET Body Shop Detailer
 190892  MANGAN, RICHARD                                                8/27/66   9/23/02             06  B   H      46522.96      11645.04   P/SC Parts Shipping Coord
 190918  MARCOTTE, THOMAS H.                                            3/10/66   7/28/85             22  B   H      77983.63      21029.97   HS Hobby Shop Technician
 190910  MAREK, DAYTON C                                               12/06/93   6/09/11             24  B   C      50717.28                 D/T Detail Technician
 190960  MARION, JACE                                                   6/23/89   9/14/15   3/28/16   03  B   H       5821.70         14.76   PDQ/LT Lowerbay Technicia
 191060  MARO, NICHOLAS                                                 8/23/84   1/20/14             18  B   H      65750.38       3621.48   SVC/A Main Shop Advisor
 190917  MARTELL, GILBERT L                                             9/14/73   1/29/14   2/02/16   03  B   H       2645.86         57.12   PDQ/LT Lowerbay Technicia
 190933  MARTINEZ, CARLOS                                               7/24/83  11/23/15             24  B   C      34472.86                 D/T Detail Technician
 185101  MARUSKA, MICHAYLA                                              1/02/95   4/11/16             12  B   H      20258.67       1428.01   FI F&I Admin
 185600  MASON, MORGAN E                                                9/17/86   8/01/16             15  B   S      28669.25                  parts/body shop
 191350  MAVITY, ROBERT                                                12/09/73   1/01/08             05  B   C      65020.35                 BS/PTB Paint Technician (
 194620  MCKAY, MICHAEL A                                              10/01/82  11/23/15   6/22/16   24  B   H       9408.26        316.98   D/PT Detail Prep Technici
 193062  MCSHANE, MICHAEL                                               6/09/96   9/12/16             27  B   H       2551.90                 CW/TM Car Wash Team Membe
 194675  MCVEIGH, DENNIS                                                3/08/89  11/13/07             04  B   C      53678.34                 SVC/TB Main Shop Technici
 195401  METZGER, JUSTIN                                                9/17/83   5/24/10             06  B   H      33937.24       5004.34   P/D Parts Driver
 195413  MEYERS, JAMES                                                  8/14/96  10/26/15             24  B   C      13394.99                 D/T Detail Technician
 195460  MICHAEL, ANTHONY E                                             4/09/80  10/25/10             01  S   C     136663.92                 GSM General Sales Manager
 196205  MILLER, DILLAN                                                 2/28/98  11/21/16             03  B   H       2390.76                 PDQ/UT Upperbay Technicia
 196335  MILLER, JOSHUA                                                 3/18/96   7/06/15   5/30/16   27  B   H       2593.40         87.60   CW/TM Car Wash Team Membe
 196341  MILLER, KIM M                                                  3/22/62   8/18/08             14  B   H      49640.58       4855.57   OFF/ARP AR/Payroll Clerk
 196345  MILLER, MICHAEL T                                             11/30/96   1/02/13             03  B   H      32647.17       3363.15   PDQ/A PDQ Advisor
 112098  MOHAMOUD, MOHAMED F                                            6/23/97   5/26/15             24  B   H      18345.19       2190.49   D/SS Detail Support Speci
 199320  MOLLBERG, JOSEPH H                                             6/16/93   4/13/15   6/27/16   27  B   H       1656.30                 CW/TM Car Wash Team Membe
 118030  MONSON, TAYLOR                                                 3/26/92   6/30/14             11  B   S      47469.40                 HR/M Human Resources Mana
 113011  MORLOCK, BRUCE A                                               8/22/55   8/30/12             18  B   H      16798.05        280.34   SVC/C Courtesy Driver
 113020  MORRIS, GREG                                                   6/20/61   4/19/10             06  B   S      65999.96                 P/OSC Outside Sales Consu
 151410  MOULDS, CRYSTAL D                                              9/25/84   1/27/11             14  B   H      25308.84       2091.03   OFF/W Warranty Admin
 152300  MUNTER, JOSHUA K                                               5/16/92   2/02/15   5/27/16   03  B   H      13503.91        875.91   PDQ/A PDQ Advisor
1100710  NEFS, GERALD F                                                 3/01/40   7/21/10             01  B   H        250.00                 S/D Sales Driver
1100752  NEILL, JASON E                                                11/16/93  11/04/16             03  B   H       7955.29         95.55   PDQ/A PDQ Advisor
1100800  NELSON, HUNTER A                                               8/17/95   5/05/14   5/31/16   24  B   C       1255.40                 D/T Detail Technician
1100820  NELSON, KORDELL                                                1/14/97   6/02/14             24  B   C      14607.66                 D/T Detail Technician
1100750  NELSON, NICHOLAS E                                             7/08/97   8/10/15   4/21/16   27  B   H       7320.03        293.76   CW/TM Car Wash Team Membe
1101568  NELSON, ZACHARY                                                8/16/99  11/21/16             03  B   H       1578.12                 PDQ/UT Upperbay Technicia
1102195  NEUMANN, ANDREW D                                              2/10/76   5/18/14             18  B   S      93500.04                 SVC/D Service Director
1102198  NEUMANN, NICKOLAS J                                            5/28/79   8/03/15             03  B   S      40462.16       1163.61   PDQ/AM PDQ Assistant Mana
1103050  NOKELBY, RONALD J                                              7/01/58   5/05/78             29  B   S      73269.33                 CART Developer
1103061  NSIBIRWA, KASSIM                                              11/29/97   6/07/16   6/29/16   03  B   H       1820.84                 PDQ/UT Upperbay Technicia


PY205     JANDR561                                              Rydell Auto Center Inc.                                                               1/01/17   8:24:15
From  1/01/16  Through 12/31/16                                 Employee Gross Pay Report                                                                      Page   6
=======================================================================================================================================================================
Employee                                                                 Birth     Hire      Term                      YR            YR
 Number  Name                                                            Date      Date      Date    Dpt Prd Cls    Gross Pay      Overtime   Job Description
=======================================================================================================================================================================
1103065  NYGAARD, KENT A                                                7/31/61   1/26/15             24  B   H      37147.45       5589.57   D/P Detail Porter
1106421  O'NEIL, TIMOTHY J                                              2/21/78   8/11/14             04  B   C      64532.82                 SVC/TB Main Shop Technici
1100611  OHMAN, NICHOLAS                                                2/07/91   7/20/15   3/20/16   03  B   H       9117.01       2165.31   PDQ/A PDQ Advisor
1106225  OLDERBAK, JOHN                                                10/22/72   2/16/16             02  S   C      53054.55                 S/UCC Used Car Sales Cons
1100625  OLSON, CODEY                                                   1/21/94   8/01/16             05  B   H      13562.51       1166.38   BS/T BS TECH
1106203  OLSON, COURTNEY                                                8/21/94   8/31/15   5/10/16   17  B   H       2754.68                 CC/GO General Operator
1106223  OLSON, CURTIS                                                  4/13/66   2/01/16             02  S   C      31650.00                 S/NCC New Car Sales Consu
1106260  OLSON, JACOB                                                   6/22/90   4/06/11             24  B   C      24539.47        701.28   D/T Detail Technician
1106399  OLSON, JAY P.                                                  7/02/76   2/11/02             04  B   C      91766.58                 SVC/TA Main Shop Technici
1106400  OLSON, JUSTIN S                                               11/02/90  11/12/12             05  B   C      56663.43                 BS/MTB Metal Technician (
1107950  ORTIZ, GUADALUPE                                               6/18/89  11/12/12             04  B   C      36599.63                 SVC/AT Accessory Technici
1108150  OST, MARILYN                                                  12/10/74   8/01/16             20  B   H       2736.30                 REC Receptionist
1108200  OSTLUND, ANNE B                                                2/22/69   1/17/11             05  B   H      75105.84       2715.95   BS/E Estimator
1108248  OTTO, GORDON REED                                              5/04/50   1/23/96             4A  B   H      29687.04        145.11   SVC/TC Main Shop Technici
1108452  PAKWAN, SUBHA                                                  8/26/89   9/26/16             03  B   H       5703.12        237.60   PDQ/T PDQ TECH
1109521  PANZER, JEFFERY                                                4/07/78   7/06/15   4/27/16   02  S   C      12092.20                 S/UCC Used Car Sales Cons
1109000  PARRISH, TYLER                                                 5/19/96   9/26/16             27  B   H       1832.70                 CW/TM Car Wash Team Membe
1109700  PASCHKE, MATTHEW G                                            12/30/72  12/27/10             06  S   C      57550.20                 AM Aftermarket Sales Cons
1109742  PAVLAK, HAILEY                                                 4/27/95   2/15/16   5/12/16   20  B   H       1731.20                 REC Receptionist
1109851  PEARSON, ROBERT E                                              5/14/90   8/01/15             02  S   C      77534.18                 S/UTL Used Car Team Leade
1109815  PEARSON, SCOTT                                                10/07/65   5/01/02             01  S   C      89958.74                 S/NCC New Car Sales Consu
1109821  PENAS, BAILEY A                                                2/15/95   5/05/14   1/05/16   12  B   H        295.92                 FC FILE CLERK
1109827  PEREZ, COTY R                                                  8/04/93   6/30/14   1/06/16   03  B   H       2510.62                 PDQ/LT Lowerbay Technicia
1109822  PEREZ, NICHOLAS                                                4/18/98  12/19/16             03  B   H      10342.71        114.87   PDQ/LT Lowerbay Technicia
1109836  PERKINS, DEVIN                                                 3/10/96   2/29/16             03  B   H      13097.40        773.64   PDQ/UT Upperbay Technicia
1109852  PERRY, DAVID J                                                 5/19/93   8/19/13   5/11/16   05  B   C      19007.17                 BS/MTC Metal Technician (
1110286  PESCH, LEVI                                                    8/08/96  12/21/15   4/02/16   27  B   H       2004.60                 CW/TM Car Wash Team Membe
1110425  PETERSON, BRIAN D.                                             4/12/79   3/15/99             05  B   C      84576.28                 BS/PDR PDR Technician
1110542  PETERSON, DOUG                                                 8/02/53  12/04/95             22  B   S      66077.10                 HS Hobby Shop Technician
1110650  PETERSON, MAVRIK                                               6/19/89  11/15/10             05  B   C      67272.30                 BS/PTA Paint Technician (
1110660  PETERSON, TYLER                                                3/03/91  11/23/15             10  B   H      22378.20                 IT/INT IT Intern
1110800  PICHE, STACEY                                                  4/12/87   5/11/15             18  B   H      41183.88       8517.46   SVC/A Main Shop Advisor
1110922  PIETRON, CHRISTOPHER                                           1/11/89  12/07/15   4/19/16   03  B   H       7880.46        469.98   PDQ/UT Upperbay Technicia
1111325  POWELL, GAYLA R                                               11/03/64   8/29/11             05  B   H      41489.81       2964.94   BS/A Body Shop Admin
1112410  PRESTON, ALLEN E                                               6/22/88   2/10/14             02  S   C      51517.86                 S/UCC Used Car Sales Cons
1112411  PRESTON, APRIL                                                 7/27/88   7/20/15             24  B   C      32693.00                 D/T Detail Technician
1112425  PRICE, JAMES J                                                 6/30/47  12/01/90             26  S   C     121800.00                 RC Rydell Company
1113940  RADKE, DUANE                                                   1/29/42   5/01/66             4A  B   H      51014.52       1111.32   SVC/TB Main Shop Technici
1114105  RAMBERG, GARY                                                  9/22/63   4/01/06             18  B   H      52745.10       3638.76   SVC/A Main Shop Advisor
1114128  RAMIREZ, JORDANNE                                              2/01/94  10/24/16             27  B   H       1633.90                 CW/TM Car Wash Team Membe
1114120  RAMIREZ, MATTHEW L                                             2/24/90   2/04/13   6/23/16   05  B   C      17486.87                 BS/PTC Paint Technician (
1114127  RAMIREZ, RAMON J                                               5/04/93   5/16/16   7/27/16   03  B   H       7042.98        362.88   PDQ/LT Lowerbay Technicia
1114135  RASMUSSON, CAITLIN M                                           5/29/95   5/19/14             20  B   H      12389.80         52.20   REC Receptionist
1114302  RAY, EUGENE                                                   11/05/87   1/04/16   3/31/16   03  B   H       6852.06        615.78   PDQ/UT Upperbay Technicia
1114831  REED, DALE                                                     7/13/60  12/21/15             06  B   H      28738.85       3189.69   P/D Parts Driver
1114860  REITER, SAMANTHA K                                            11/20/91   8/01/16             27  B   H       1566.20                 CAR WASH Car Wash
1114921  REUTER, TIMOTHY J                                             11/28/67   1/26/15             05  B   H      57868.91       8347.44   BS/MTA Metal Technician (
1116800  RICHARDSON, DARRICK J                                         11/30/90   9/29/15             24  B   C      26453.20                 D/T Detail Technician
1116963  RIEGER, PAIGE                                                  4/02/94   8/31/15             18  B   H      10727.70                 SVC/C Courtesy Driver
1116937  RIGBY, SHAUN                                                   7/09/81   8/31/15   3/10/16   4A  B   H       9372.99        605.55   SVC/TB Main Shop Technici
1117600  ROBLES, RUDOLPH                                                5/05/59   7/12/00             03  B   H      49298.98      13941.19   PDQ/A PDQ Advisor
1117842  RODRIGUEZ, JUSTIN                                              9/25/96  11/23/15             03  B   H      34351.37       4551.93   PDQ/A PDQ Advisor


PY205     JANDR561                                              Rydell Auto Center Inc.                                                               1/01/17   8:24:15
From  1/01/16  Through 12/31/16                                 Employee Gross Pay Report                                                                      Page   7
=======================================================================================================================================================================
Employee                                                                 Birth     Hire      Term                      YR            YR
 Number  Name                                                            Date      Date      Date    Dpt Prd Cls    Gross Pay      Overtime   Job Description
=======================================================================================================================================================================
1117850  RODRIGUEZ, OZKAR                                               3/17/98   7/18/16             03  B   H      11562.14        235.80   PDQ/T PDQ TECH
1117950  ROEHRICH, NICKOLAS P                                           4/15/95   8/25/14             24  B   C       6938.10                 D/T Detail Technician
1117901  ROGERS, MITCH A                                                5/08/95  10/13/14             4A  B   H      36272.10       2272.33   SVC/TC Main Shop Technici
1117960  ROGNE, CRAIG A.                                                2/09/66   6/13/88             18  B   S      50000.08                 SVC/LT Lead Main Shop Tec
1118722  ROSE, CORY                                                     1/03/83  10/23/06             05  B   C      82605.47                 BS/MTB Metal Technician (
1118800  ROSENTHAL, DAVID B                                            12/27/71   2/11/13             06  B   H      37397.53        953.37   P/S Parts Sales Consultan
1118832  ROTTER, JOSEPH                                                 3/17/90   6/16/14             06  B   H      19918.37       1067.20   P/SS Parts Shipping Speci
1119852  RUST, JACOB                                                    6/03/98  10/10/16             03  B   H       5528.32                 PDQ/UT Upperbay Technicia
1120110  RYAN, ANTONIO R                                                7/02/78   3/29/12             27  B   S      50846.20                 CW/MGR Car Wash Manager
1120209  RYDELL, BRENDAN                                                6/13/99   2/15/16   6/24/16   27  B   H       2893.50                 CW/TM Car Wash Team Membe
1120225  RYDELL, BRIAN L                                                5/15/72   6/28/99             01  B   S     737302.22                 DP Dealer Principal
1120800  RYDELL, WESLEY D                                               5/22/41   6/01/62             01  S   C     644000.00                 RC Rydell Company
1120120  RYGG, KEN C                                                    8/11/63  11/21/12             06  B   H      34947.28       2677.92   P/S Parts Sales Consultan
1121000  SABOL, LUCAS                                                   8/20/96  10/24/16             27  B   H       1270.90                 CW/TM Car Wash Team Membe
1121240  SALBERG, GAYLEN K                                              8/10/47   6/01/10             01  S   C      76745.50                 S/FM Finance Manager
1121246  SALVESON, DEVIN L                                              2/24/94   9/08/14             24  B   H      26304.57        328.62   D/SS Detail Support Speci
1121250  SALVIONE, SHAYLA K                                            10/13/93   8/25/14             27  B   H      23195.34        453.18   CW/C Car Wash Cashier
1122110  SANCHEZ, ROGELIO                                              11/27/70   7/06/15             27  B   H      91228.00      44262.00   CW/MT Maintenance Technic
1122246  SAPP, CORDEAU I                                               10/08/98   8/17/15             03  B   H      38363.58       9358.50   PDQ/A PDQ Advisor
1122320  SATTLER, NICHOLAS G                                           10/30/90   7/16/12   8/31/16   05  B   H      40304.65       1425.69   BS/E Estimator
1122342  SATTLER, RANDY J.                                              9/24/58   8/26/02             05  S   C      95855.13                 BS/MGR Body Shop Manager
1122352  SAULS, THOMAS R                                                7/16/91   8/12/13             24  B   C      40564.30                 D/T Detail Technician
1123002  SCHANTZ, TAYLOR                                                5/13/99  10/26/15             03  B   H       9216.92                 PDQ/UT Upperbay Technicia
1123340  SCHMIESS PENAS, JERI L                                         1/24/83   5/12/09             14  B   S     122900.06                 CTRL Controller
1123355  SCHOLAND, ALLISON                                              5/05/97   6/16/14             27  B   H      20975.36        398.59   CW/C Car Wash Cashier
1123351  SCHOLAND, DANIEL V                                             6/14/83   6/09/14  10/04/16   14  B   H      27172.41        691.91   OFF/AA Accounting Admin
1123950  SCHRICK, SAMUEL                                                6/08/94  11/23/15   3/08/16   27  B   H        335.90                 CW/TM Car Wash Team Membe
1124400  SCHUPPERT, KODEY                                               5/26/92   4/27/15             4A  B   H      31280.55       2048.55   SVC/TC Main Shop Technici
1124430  SCHWAN, JASON                                                  2/23/79  10/26/15             18  B   H      23914.30       1154.75   SVC/S Service Stager
1124436  SCHWAN, MICHAEL                                                9/16/81   2/27/12             04  B   C      72418.89                 SVC/TA Main Shop Technici
1124625  SEAY, BRYN N                                                   2/08/90   8/25/14             01  S   C      69996.72                 S/DTL Digital Team Leader
1124875  SEEBA, BRADLEY F.                                             10/02/58   4/11/77             06  B   H      55342.80       1671.80   P/S Parts Sales Consultan
1124895  SENG, JOHN M                                                   6/13/97   4/17/16             03  B   H      15296.96        901.32   PDQ/A PDQ Advisor
1125565  SEVIGNY, SCOTT                                                 3/06/84   9/29/08             05  B   C      62685.86                 BS/MTB Metal Technician (
1125599  SEXTON, WADE                                                   7/14/66   6/20/16   6/20/16   06  B   H         22.75                 P/D Parts Driver
1126040  SHERECK, LOREN                                                 9/26/65  11/07/16             05  B   H      53781.26       1470.97   BS/MTA Metal Technician (
1126300  SHIREK, NICHOLAS                                              10/21/89   5/01/15   2/29/16   01  S   C      17334.59                 S/NCM New Car Sales Manag
1126055  SHROYER, RYAN G                                                8/02/95   4/10/13             18  B   H      25569.63       3393.46   SVC/C Courtesy Driver
1126060  SHUMAKER, MARTIN D                                            11/21/63   7/01/13             20  B   H      32056.55       1108.95   CUST Custodian
1126110  SIERACKI, ZACHARY F                                            1/15/91   6/15/14             18  B   H      36994.15       4821.81   SVC/A Main Shop Advisor
1126697  SIMONSON, AUSTIN                                               2/28/96  12/21/15   4/16/16   27  B   H       1530.00                 CW/TM Car Wash Team Membe
1109819  SITZER, SHERRY A                                              12/31/87   2/29/16             54  B   H      21025.12       1086.84   R/A Rental Agent
1129090  SOBOLIK, DILLON                                               10/12/98   3/14/16             03  B   H       9193.98         88.38   PDQ/UT Upperbay Technicia
1129560  SOENKSEN, LINDSEY                                              4/07/94   5/23/16             27  B   H       7547.55         17.55   CW/C Car Wash Cashier
1130090  SOLEM, BEN G                                                   1/18/96   9/16/13             06  B   H      28681.15       1387.71   P/SS Parts Shipping Speci
1130098  SOLI, DERICK                                                   1/20/89   6/16/14             4A  B   H      32061.62       1368.47   SVC/TC Main Shop Technici
1130101  SOLIE, JOSHUA A                                               12/22/95   8/22/16             03  B   H      16697.70       1255.38   PDQ/UT Upperbay Technicia
1130326  SOLIE, TANNER                                                  9/19/97   8/29/16             03  B   H       4692.12                 PDQ/UT Upperbay Technicia
1130426  SORUM, GREG                                                    1/26/63   1/01/96             29  B   S    1000399.74                 EX/MGR Executive Manager
1130430  SORUM, MICHAEL J                                               1/02/85  11/04/02             29  B   H      44627.67       1310.89   CART Developer
1130562  SRUR, GEORGE                                                   5/05/53  10/14/15             01  B   H        351.50                 S/D Sales Driver
1130690  STADSTAD, LARRY O                                             12/07/53   1/01/15             01  S   C      70558.68                 S/F Fleet Sales Consultan


PY205     JANDR561                                              Rydell Auto Center Inc.                                                               1/01/17   8:24:15
From  1/01/16  Through 12/31/16                                 Employee Gross Pay Report                                                                      Page   8
=======================================================================================================================================================================
Employee                                                                 Birth     Hire      Term                      YR            YR
 Number  Name                                                            Date      Date      Date    Dpt Prd Cls    Gross Pay      Overtime   Job Description
=======================================================================================================================================================================
1130510  STAFFORD, MITCH A                                              5/11/89  12/23/13             06  B   H      42497.99      10156.79   P/SS Parts Shipping Speci
1130700  STALLMO, RICHARD D                                             2/27/41   9/16/09             18  B   H      26418.71       3220.70   SVC/C Courtesy Driver
1131105  STECKER, ADAM                                                  8/28/96   3/14/16  11/21/16   03  B   H       6844.20                 PDQ/UT Upperbay Technicia
1132205  STEIN, DONALD W                                               11/19/76   8/13/12             06  B   H      32973.87       3793.23   P/C Parts Counter Consult
1132218  STEINKE, MARK                                                  3/22/74   2/28/05             05  B   H      84129.83        662.60   BS/PM Production Manager
1132231  STEPHENSON, THOMAS M                                           9/01/99   7/18/16   8/26/16   27  B   H        975.40                  parts/body shop
1132590  STINAR, CORY                                                   3/02/90   6/13/13             06  B   H      48600.50       2718.18   P/SS Parts Shipping Speci
1132595  STINAR, DANIEL M                                               1/15/84  12/15/09             06  B   S      96200.00                 P/MGR Parts Manager
1132600  STOLEY, BETHANY                                                7/21/97   1/12/15             17  B   H       7948.53                 CC/GO General Operator
1132700  STOUT, RICK                                                    5/25/74   8/29/16             01  S   C      49000.00                 S/FM Finance Manager
1133500  STRANDELL, TRAVIS J                                            4/20/94   4/12/11             4A  B   H      16572.99        294.99   SVC/TC Main Shop Technici
1133727  STREETER, TIMOTHY                                              2/21/67   3/28/07             06  B   H      46189.58      12020.93   P/D Parts Driver
  16250  STREITZ, DANIELLE M                                            5/12/85   9/12/11             06  B   H      28024.78        767.34   P/C Parts Counter Consult
1133800  STROPNICKY, FRANK J.                                          12/17/35   4/01/69             18  B   H      14463.26                 SVC/C Courtesy Driver
1132420  STROTHER, LAKEITH A                                           10/26/86   5/02/16  12/23/16   02  S   C      42624.22                 VS SALES CONSULTANT
1134524  SWANSON, KRISTEN L                                             4/20/95   5/26/15             05  B   C      36047.86                 BS/PT Body Shop Prep Tech
1135265  SYMONS, ELIZABETH R                                            9/26/83  12/27/12             29  B   S      70269.36                 CART Developer
1135260  SYMONS, STEVEN                                                 7/09/83  11/22/10             10  B   S      63085.27                 IT/MGR IT Manager
1135410  SYVERSON, JOSHUA LEE                                           9/19/86   6/11/12             4A  B   H      36833.25       2390.35   SVC/TC Main Shop Technici
1135450  TAMANG, CHATUR S                                               2/26/70  10/23/14             03  B   H      14037.38                 PDQ/LT Lowerbay Technicia
1141210  TANDESKI, HEATHER M                                            3/13/87   6/02/14             14  B   H      30997.96        679.56   OFF/SA Sales Admin
1135518  TARR, JEFF D                                                   9/14/62  11/01/93             01  S   C      31742.83                 S/NCC New Car Sales Consu
1135710  TELKEN, WYATT                                                  6/23/95   7/20/11             24  B   C      14961.76                 D/T Detail Technician
1135810  TELLEZ, MARCUS                                                 5/16/96   3/14/16             27  B   H      14433.22         42.12   CAR WASH Car Wash
1137590  THOMPSON, WYATT                                                2/26/87   5/14/07             04  B   C      50379.75                 SVC/TA Main Shop Technici
1138125  THORSON, LYLE                                                  7/12/34  11/02/06             01  B   H       4915.00                 S/D Sales Driver
1137596  THRANE, PHILIP J                                               2/12/96   7/18/16             27  B   H       1806.80                 CAR WASH Car Wash
1140870  TROFTGRUBEN, RODNEY                                            7/23/68   8/03/92             18  B   H      87762.26       4471.67   SVC/A Main Shop Advisor
1140911  TROMBLEY, SHELLY                                               7/06/67   1/12/15   2/05/16   05  B   H       4772.70        158.56   BS/A Body Shop Admin
1141632  TROSEN, KEVIN                                                  9/21/85  11/23/15   3/31/16   05  B   C      15131.78       1625.70   BS/PTC Paint Technician (
1141642  TROSEN, TANNER J                                               3/29/90   8/17/15             01  S   C      56143.32                 S/DC Digital Sales Consul
 114201  TROTTIER, KAYLA                                                1/24/94   3/30/15   3/24/16   12  B   H       7286.74        101.22   FI F&I Admin
1142827  TYRRELL, JOHN H                                                1/14/60   7/10/00  11/26/16   18  B   H       2760.00                 SVC/A Main Shop Advisor
1144265  VANHESTE II, FRED E                                            6/30/87   5/15/07             06  B   H      42540.80       2679.12   P/S Parts Sales Consultan
1144310  VANNELLI, BRANDEN J                                            1/13/95   8/25/16             06  B   H       4944.62                 P/SS Parts Shipping Speci
1144901  VELA, GEORGE                                                   7/02/97   4/11/16             03  B   H      20612.69       2148.93   PDQ/UT Upperbay Technicia
1145001  VELAZQUEZ, KENNETH                                             8/17/90   1/04/16             03  B   H      28905.17       3558.69   PDQ/A PDQ Advisor
1145560  VERZOSA, RONNIE D                                              2/14/65   1/20/14   7/02/16   24  B   C        568.20                 D/T Detail Technician
1145582  VETTER, JENNIFER                                               6/02/92   8/31/15   4/21/16   11  B   H       9038.68         50.40   HR/A Recruiter/Benefits C
1145660  VIEN, NORMAN A JR.                                             2/08/54   7/27/07             22  B   H       8313.03                 HS Hobby Shop Technician
1146751  WAGENER, SAMUEL L                                              7/12/84   1/01/14             25  B   S      72300.24                 RC Rydell Company
1146989  WALDBAUER, ALEX                                                2/01/89   8/29/07             04  B   C      40900.20                 SVC/AT Accessory Technici
1146991  WALDEN, CHRIS W                                               10/30/69   9/06/94             05  B   C      71246.09                 BS/PTA Paint Technician (
1147062  WALIOR, SUSAN E.                                               4/03/64   3/03/97             54  B   S      48000.20                 R/TL Rental Team Leader
1147061  WALTON, JOSHUA                                                 4/21/85  12/27/06             05  B   C      70659.78                 BS/MTA Metal Technician (
1147250  WARMACK, JAMES H                                              10/03/61   4/02/11             01  S   C      81169.26                 S/NCC New Car Sales Consu
1147325  WARWEG, THOMAS M                                               7/17/93  10/06/14   9/02/16   05  B   H      18856.24       1570.00   BS/DET Body Shop Detailer
1147810  WEBER, JAMES A                                                 2/19/82  10/10/11             01  S   C      84562.18                 S/NTL New Car Team Leader
1147900  WETCH, ANTHONY                                                 3/06/75  11/21/16             05  B   H       4818.22                 BS/MTB Metal Technician (
1148583  WHEELER, WENDI R                                               6/26/71  11/09/15             01  B   H      39109.72        786.71   S/PS Sales Product Specia
1148699  WICKEN, LYLE H.                                                2/18/36   1/01/00             01  B   H        120.00                 S/D Sales Driver
1148720  WIEBUSCH, DANIEL R                                            12/22/89  12/29/14             10  B   H      36075.00       2597.05   IT/HD IT Help Desk


PY205     JANDR561                                              Rydell Auto Center Inc.                                                               1/01/17   8:24:15
From  1/01/16  Through 12/31/16                                 Employee Gross Pay Report                                                                      Page   9
=======================================================================================================================================================================
Employee                                                                 Birth     Hire      Term                      YR            YR
 Number  Name                                                            Date      Date      Date    Dpt Prd Cls    Gross Pay      Overtime   Job Description
=======================================================================================================================================================================
1149160  WILKENING, RONALD                                              5/12/42   1/01/11             01  B   H       3135.00                 S/D Sales Driver
1149180  WILKIE, DAVID                                                  9/28/54   5/17/78             02  S   C      90417.00                 S/UINV Used Car Inventory
1149256  WINGATE, LINDSEY                                               3/10/90  11/09/15   4/14/16   29  B   H       3958.02                 CART1 Database Intern
1149300  WINKLER, ZACHARY S                                             3/21/94   5/19/14             04  B   C      41000.06                 SVC/TB Main Shop Technici
1149636  WINZER, CHRISTOPHER L                                         11/09/88   6/25/07             06  B   H      33593.88       6080.55   P/SS Parts Shipping Speci
1149650  WOCKEN, CHAYTON                                                4/06/00   6/20/16   8/23/16   27  B   H       1000.00                 CW/TM Car Wash Team Membe
1149710  WOINAROWICZ, EMILEE M                                          5/09/94   7/29/13             16  B   H      39801.14       7253.82   CC/SO Service Operator
1149923  WOODBRIDGE, ZACHARY                                            7/22/92  10/26/15   2/12/16   17  B   H       3234.18         18.90   CC/GO General Operator
1150076  WYATT, KAYCEE                                                  5/14/97   8/31/15   5/22/16   27  B   H       2637.00                 CW/C Car Wash Cashier
1150510  YEM, RITHY MICHAEL R                                           4/24/87   4/29/13             05  B   H      57911.18       1484.00   BS/E Estimator
1150622  YOUNG, JORDAN                                                  9/12/97   2/15/16   6/08/16   03  B   H       3155.28                 PDQ/UT Upperbay Technicia
1151450  YUNKER, GEORGE P                                               6/17/91   9/26/16             01  S   C       8610.90                 S/NCC New Car Sales Consu
1150920  ZACHA, CHARLES J                                               4/04/57  12/29/14             04  B   C      44796.45                 SVC/TB Main Shop Technici
1160100  ZOELLICK, STEVE                                                7/18/51   1/01/13             11  B   S      39000.04                 RC Rydell Company

  430 Employees Listed                                                               Pay Totals                   16403835.71     423491.47

